<svg id="job-seeker" xmlns="http://www.w3.org/2000/svg" width="60.15" height="53.194" viewBox="0 0 60.15 53.194">
  <g id="Group_15" data-name="Group 15" transform="translate(0 0)">
    <path id="Path_1" data-name="Path 1" d="M55.87,48.42c-.107-.107-.216-.212-.326-.315V44.719a6.113,6.113,0,0,0-6.106-6.106H38.728V35.544A5.948,5.948,0,0,0,32.787,29.6H22.758a5.948,5.948,0,0,0-5.941,5.941v3.069H6.106A6.113,6.113,0,0,0,0,44.719V71.9A6.113,6.113,0,0,0,6.106,78H18.855a.881.881,0,1,0,0-1.762H6.106A4.349,4.349,0,0,1,1.762,71.9V54.123a10.354,10.354,0,0,0,7.815,4.55v3.208a3.323,3.323,0,0,0,6.646,0V58.7H30.946c0,.014,0,.028,0,.042a14.5,14.5,0,0,0,2.57,8.278l-1.871,1.871a1.936,1.936,0,0,0-1.9.492L22.562,76.57a3.648,3.648,0,0,0,5.159,5.159l7.185-7.185a1.936,1.936,0,0,0,.492-1.9l1.872-1.872a14.637,14.637,0,0,0,16.513.028v1.1a4.349,4.349,0,0,1-4.344,4.344H35.521a.881.881,0,1,0,0,1.762H49.438A6.113,6.113,0,0,0,55.544,71.9V69.383c.11-.1.219-.208.326-.315a14.593,14.593,0,0,0,0-20.648ZM18.579,35.544a4.184,4.184,0,0,1,4.179-4.179H32.786a4.184,4.184,0,0,1,4.179,4.179v3.069h-1.88V35.544a2.3,2.3,0,0,0-2.3-2.3H22.758a2.3,2.3,0,0,0-2.3,2.3v3.069h-1.88Zm3.642,3.069V35.544a.538.538,0,0,1,.537-.537H32.786a.538.538,0,0,1,.537.537v3.069Zm-7.76,20.56H11.339V56.207a1.561,1.561,0,0,1,3.121,0ZM12.9,63.442a1.562,1.562,0,0,1-1.561-1.561v-.946H14.46v.946A1.562,1.562,0,0,1,12.9,63.442Zm3.323-6.5v-.733a3.323,3.323,0,0,0-6.646,0v.7a8.6,8.6,0,0,1-7.815-8.55V44.719a4.349,4.349,0,0,1,4.344-4.344H49.438a4.349,4.349,0,0,1,4.344,4.344v1.966A14.606,14.606,0,0,0,31.055,56.94H16.222ZM26.474,80.482a1.886,1.886,0,1,1-2.667-2.667l4.978-4.978L31.452,75.5ZM33.659,73.3l-.961.961-2.667-2.667.961-.961a.173.173,0,0,1,.245,0h0l2.421,2.421a.174.174,0,0,1,0,.245Zm.665-2.072-1.26-1.26,1.547-1.547q.295.332.611.65t.65.61Zm2.143-3.4a12.838,12.838,0,1,1,18.156,0A12.754,12.754,0,0,1,36.468,67.822Z" transform="translate(0 -29.603)" fill="#4c51ad"/>
    <path id="Path_2" data-name="Path 2" d="M317.9,199.35a.881.881,0,0,0-1.048.674,8.817,8.817,0,1,1,0-3.772.881.881,0,0,0,1.722-.375,10.58,10.58,0,1,0,0,4.521A.881.881,0,0,0,317.9,199.35Z" transform="translate(-262.688 -168.999)" fill="#4c51ad"/>
  </g>
</svg>
